CodeEditingAction 1638962266435 piglatintranslator_test.java CHANGE piglatintranslator_test.java CLASS
EditAction 1638962266436 piglatintranslator_test.java 2806 11 32 10
CodeEditingAction 1638962267478 piglatintranslator.java CHANGE piglatintranslator.java CLASS
EditAction 1638962268087 piglatintranslator.java 4024 8 19 0
EditAction 1638962268105 piglatintranslator_test.java 2806 11 32 10
EditAction 1638962270442 piglatintranslator.java 4024 8 19 0
EditAction 1638962270454 piglatintranslator_test.java 2806 11 32 10
TestFailureAction 1638962271149 piglatintranslator_test.java FAIL
CodeEditingAction 1638962690892 piglatintranslator.java CHANGE piglatintranslator.java CLASS
EditAction 1638962691005 piglatintranslator.java 4058 8 19 0
EditAction 1638962692771 piglatintranslator.java 4058 8 19 0
TestFailureAction 1638962693027 piglatintranslator_test.java FAIL
TestFailureAction 1638962703684 piglatintranslator_test.java FAIL
TestFailureAction 1638962909735 piglatintranslator_test.java FAIL
CodeEditingAction 1638962940958 piglatintranslator_test.java CHANGE piglatintranslator_test.java CLASS
EditAction 1638962941075 piglatintranslator_test.java 2810 1 3 1
EditAction 1638962941512 piglatintranslator_test.java 2810 1 3 1
TestFailureAction 1638962942027 piglatintranslator_test.java FAIL
CodeEditingAction 1638963179393 piglatintranslator.java CHANGE piglatintranslator.java CLASS
EditAction 1638963179523 piglatintranslator.java 4065 8 19 0
EditAction 1638963181035 piglatintranslator.java 4065 8 19 0
TestFailureAction 1638963181421 piglatintranslator_test.java FAIL
CodeEditingAction 1638963425669 piglatintranslator.java CHANGE piglatintranslator.java CLASS
EditAction 1638963425791 piglatintranslator.java 4094 8 19 0
EditAction 1638963427253 piglatintranslator.java 4094 8 19 0
CodeEditingAction 1638963452336 piglatintranslator.java CHANGE piglatintranslator.java CLASS
EditAction 1638963452449 piglatintranslator.java 4097 8 19 0
EditAction 1638963453799 piglatintranslator.java 4097 8 19 0
TestFailureAction 1638963453879 piglatintranslator_test.java FAIL
CodeEditingAction 1638963530499 piglatintranslator.java CHANGE piglatintranslator.java CLASS
EditAction 1638963530605 piglatintranslator.java 4062 8 19 0
EditAction 1638963531883 piglatintranslator.java 4062 8 19 0
TestFailureAction 1638963532060 piglatintranslator_test.java FAIL
CodeEditingAction 1638963574904 piglatintranslator.java CHANGE piglatintranslator.java CLASS
EditAction 1638963575031 piglatintranslator.java 4030 8 19 0
EditAction 1638963576515 piglatintranslator.java 4030 8 19 0
TestFailureAction 1638963576820 piglatintranslator_test.java FAIL
CodeEditingAction 1638963752503 piglatintranslator.java CHANGE piglatintranslator.java CLASS
EditAction 1638963752560 piglatintranslator.java 4039 8 19 0
EditAction 1638963753749 piglatintranslator.java 4039 8 19 0
EditAction 1638963755643 piglatintranslator.java 4039 8 19 0
EditAction 1638963755652 piglatintranslator.java 4039 8 19 0
EditAction 1638963755787 piglatintranslator.java 4039 8 19 0
EditAction 1638963807024 piglatintranslator.java 4039 8 19 0
EditAction 1638963807040 piglatintranslator.java 4039 8 19 0
EditAction 1638963807159 piglatintranslator.java 4039 8 19 0
EditAction 1638963810696 piglatintranslator.java 4039 8 19 0
EditAction 1638963810706 piglatintranslator.java 4039 8 19 0
EditAction 1638963811715 piglatintranslator.java 4039 8 19 0
EditAction 1638963895839 piglatintranslator.java 4039 8 19 0
EditAction 1638963895844 piglatintranslator.java 4039 8 19 0
EditAction 1638963895951 piglatintranslator.java 4039 8 19 0
EditAction 1638963898736 piglatintranslator.java 4039 8 19 0
EditAction 1638963898744 piglatintranslator.java 4039 8 19 0
EditAction 1638963898751 piglatintranslator.java 4039 8 19 0
EditAction 1638963898777 piglatintranslator.java 4039 8 19 0
EditAction 1638963898885 piglatintranslator.java 4039 8 19 0
EditAction 1638963902246 piglatintranslator.java 4039 8 19 0
EditAction 1638963902251 piglatintranslator.java 4039 8 19 0
EditAction 1638963902360 piglatintranslator.java 4039 8 19 0
EditAction 1638964016072 piglatintranslator.java 4039 8 19 0
EditAction 1638964016080 piglatintranslator.java 4039 8 19 0
EditAction 1638964016090 piglatintranslator.java 4039 8 19 0
EditAction 1638964016097 piglatintranslator.java 4039 8 19 0
EditAction 1638964016229 piglatintranslator.java 4039 8 19 0
EditAction 1638964020585 piglatintranslator.java 4039 8 19 0
EditAction 1638964020591 piglatintranslator.java 4039 8 19 0
EditAction 1638964020601 piglatintranslator.java 4039 8 19 0
EditAction 1638964020610 piglatintranslator.java 4039 8 19 0
EditAction 1638964020720 piglatintranslator.java 4039 8 19 0
EditAction 1638964257216 piglatintranslator.java 4039 8 19 0
EditAction 1638964257233 piglatintranslator.java 4039 8 19 0
EditAction 1638964257240 piglatintranslator.java 4039 8 19 0
EditAction 1638964257247 piglatintranslator.java 4039 8 19 0
EditAction 1638964257373 piglatintranslator.java 4039 8 19 0
CodeEditingAction 1638964267855 piglatintranslator.java CHANGE piglatintranslator.java CLASS
EditAction 1638964267944 piglatintranslator.java 4007 8 19 0
EditAction 1638964269508 piglatintranslator.java 4007 8 19 0
TestFailureAction 1638964269913 piglatintranslator_test.java FAIL
EditAction 1638964288942 piglatintranslator.java 4007 8 19 0
EditAction 1638964288947 piglatintranslator.java 4007 8 19 0
EditAction 1638964289054 piglatintranslator.java 4007 8 19 0
EditAction 1638964294637 piglatintranslator.java 4007 8 19 0
EditAction 1638964294645 piglatintranslator.java 4007 8 19 0
EditAction 1638964294654 piglatintranslator.java 4007 8 19 0
EditAction 1638964294662 piglatintranslator.java 4007 8 19 0
EditAction 1638964294673 piglatintranslator.java 4007 8 19 0
EditAction 1638964294680 piglatintranslator.java 4007 8 19 0
EditAction 1638964294802 piglatintranslator.java 4007 8 19 0
EditAction 1638964381530 piglatintranslator.java 4007 8 19 0
EditAction 1638964381539 piglatintranslator.java 4007 8 19 0
EditAction 1638964381546 piglatintranslator.java 4007 8 19 0
EditAction 1638964381552 piglatintranslator.java 4007 8 19 0
EditAction 1638964381558 piglatintranslator.java 4007 8 19 0
EditAction 1638964381563 piglatintranslator.java 4007 8 19 0
EditAction 1638964381694 piglatintranslator.java 4007 8 19 0
CodeEditingAction 1638964444762 piglatintranslator.java CHANGE piglatintranslator.java CLASS
EditAction 1638964444866 piglatintranslator.java 3991 8 19 0
EditAction 1638964445971 piglatintranslator.java 3991 8 19 0
TestFailureAction 1638964446254 piglatintranslator_test.java FAIL
CodeEditingAction 1638964529000 piglatintranslator.java CHANGE piglatintranslator.java CLASS
EditAction 1638964529098 piglatintranslator.java 4033 8 19 0
EditAction 1638964530140 piglatintranslator.java 4033 8 19 0
TestFailureAction 1638964530247 piglatintranslator_test.java FAIL
CodeEditingAction 1638964645136 piglatintranslator.java CHANGE piglatintranslator.java CLASS
EditAction 1638964645273 piglatintranslator.java 4103 8 19 0
EditAction 1638964646405 piglatintranslator.java 4103 8 19 0
TestFailureAction 1638964646490 piglatintranslator_test.java FAIL
CodeEditingAction 1638964745052 piglatintranslator.java ADD piglatintranslator.java CLASS
CodeEditingAction 1638964783285 piglatintranslator.java ADD piglatintranslator.java CLASS
CodeEditingAction 1638964791126 piglatintranslator.java CHANGE piglatintranslator.java CLASS
EditAction 1638964791248 piglatintranslator.java 4140 8 19 0
EditAction 1638964792324 piglatintranslator.java 4140 8 19 0
TestFailureAction 1638964793993 piglatintranslator_test.java FAIL
CodeEditingAction 1638964820956 piglatintranslator.java CHANGE piglatintranslator.java CLASS
EditAction 1638964821060 piglatintranslator.java 4133 8 19 0
EditAction 1638964822023 piglatintranslator.java 4133 8 19 0
TestFailureAction 1638964822078 piglatintranslator_test.java FAIL
CodeEditingAction 1638964840125 piglatintranslator.java CHANGE piglatintranslator.java CLASS
EditAction 1638964840299 piglatintranslator.java 4162 8 16 0
CodeEditingAction 1638964844821 piglatintranslator.java CHANGE piglatintranslator.java CLASS
EditAction 1638964844928 piglatintranslator.java 4163 8 19 0
EditAction 1638964845923 piglatintranslator.java 4163 8 19 0
TestFailureAction 1638964846063 piglatintranslator_test.java FAIL
CodeEditingAction 1638964874533 piglatintranslator.java CHANGE piglatintranslator.java CLASS
EditAction 1638964874626 piglatintranslator.java 4180 8 19 0
EditAction 1638964875751 piglatintranslator.java 4180 8 19 0
TestFailureAction 1638964875831 piglatintranslator_test.java FAIL
CodeEditingAction 1638964962571 piglatintranslator.java CHANGE piglatintranslator.java CLASS
EditAction 1638964962681 piglatintranslator.java 4207 8 19 0
EditAction 1638964963697 piglatintranslator.java 4207 8 19 0
TestPassAction 1638964963834 piglatintranslator_test.java OK
CodeEditingAction 1638965059980 piglatintranslator.java CHANGE piglatintranslator.java CLASS
EditAction 1638965060162 piglatintranslator.java 3979 8 19 0
EditAction 1638965060895 piglatintranslator.java 3979 8 19 0
CodeEditingAction 1638965078957 piglatintranslator.java CHANGE piglatintranslator.java CLASS
EditAction 1638965079069 piglatintranslator.java 3967 8 18 0
TestPassAction 1638965079956 piglatintranslator_test.java OK
EditAction 1638965080081 piglatintranslator.java 3967 8 18 0
CodeEditingAction 1638965093163 piglatintranslator_test.java ADD void testInputPhrase() METHOD
CodeEditingAction 1638965093163 piglatintranslator_test.java ADD void testTranslateNullInputPhrase() METHOD
CodeEditingAction 1638965093163 piglatintranslator_test.java ADD void testTranslateWordStartingVowelWithEndingY() METHOD
CodeEditingAction 1638965093163 piglatintranslator_test.java ADD void testTranslateWordStartingVowelWithEndingVowel() METHOD
CodeEditingAction 1638965093163 piglatintranslator_test.java ADD void testTranslateWordStartingVowelWithEndingConsonant() METHOD
CodeEditingAction 1638965093163 piglatintranslator_test.java ADD void testTranslateWordStartingWithOneConsonant() METHOD
CodeEditingAction 1638965093164 piglatintranslator_test.java ADD void testTranslateWordStartingWithMoreConsonant() METHOD
CodeEditingAction 1638965093164 piglatintranslator_test.java ADD void testTranslatePhraseWithUnderscores() METHOD
CodeEditingAction 1638965093164 piglatintranslator_test.java ADD void testTranslatePhraseWithSpaces() METHOD
CodeEditingAction 1638965093164 piglatintranslator_test.java ADD void testTranslatePhraseWithBoth() METHOD
CodeEditingAction 1638965093164 piglatintranslator_test.java ADD void testTranslatePhraseWithPunctuations() METHOD
CodeEditingAction 1638965095219 piglatintranslator_test.java CHANGE piglatintranslator_test.java CLASS
EditAction 1638965095345 piglatintranslator_test.java 2805 11 32 10
EditAction 1638965095797 piglatintranslator_test.java 2805 11 32 10
TestPassAction 1638965096366 piglatintranslator_test.java OK
CodeEditingAction 1638965110687 piglatintranslator_test.java RENAME testTranslatePhraseWithBoth()=>void testTranslatePhraseWithUnderscoreAnd() METHOD
CodeEditingAction 1638965112694 piglatintranslator_test.java RENAME testTranslatePhraseWithUnderscoreAnd()=>void testTranslatePhraseWithUnderscoreAndSpace() METHOD
CodeEditingAction 1638965117705 piglatintranslator_test.java RENAME testTranslatePhraseWithUnderscoreAndSpace()=>void testTranslatePhraseWithUnderscorseAndSpace() METHOD
CodeEditingAction 1638965118709 piglatintranslator_test.java RENAME testTranslatePhraseWithUnderscorseAndSpace()=>void testTranslatePhraseWithUnderscorseAndSpaces() METHOD
CodeEditingAction 1638965384899 piglatintranslator_test.java CHANGE piglatintranslator_test.java CLASS
EditAction 1638965385065 piglatintranslator_test.java 2821 11 32 10
EditAction 1638965385389 piglatintranslator_test.java 2821 11 32 10
